           `:+sooo++++oooo+-            
        `/ys/.            `/sy/`        
      .sh/           `.       :ys.      
    `sd:          :hy/          -ho`    
   -mo            `--`   ..       +d.   
  :N/             ohN.  -/:-       :m-  
 -N/   :hyyso++//+mNNs++++ooosyh:   :N- 
`ms `/ss:.``-///:/mNNs:/++:.``-ohh-  od 
oN` `     /NNy`   yNN-   -NNs    `--``N+
my        sNNo    yNN-    dNN`        sd
N+         /ydyo+/dNN+:/+hmy:         /N
N/            `+mdhNNods-             :N
N+          -sNh: oNN- /dmo.          /N
dh  `-::/oymh+.   oNN-   -smms:`      sd
+N.   .:/+-`      oNN-      .:/+:.   `N/
 my         `.    oNN/               sd 
 -N+       ://.   oNNNh/-`          /N. 
  -N+             sNm:-::-.        /m-  
   .ds`          `mm-             sd.   
     od/    :ss--hy`            :d+     
      `od+` -sso/`           `/ho`      
         /yy+-            .+ss:         
            -+sssooooooooo/-            
